{
  "project_info": {
    "project_number": "155886187869",
    "firebase_url": "https://gdg-ml-wm.firebaseio.com",
    "project_id": "gdg-ml-wm",
    "storage_bucket": "gdg-ml-wm.appspot.com"
  },
  "client": [
    {
      "client_info": {
        "mobilesdk_app_id": "1:155886187869:android:47d0e2dc9cf55546",
        "android_client_info": {
          "package_name": "com.paper.ball.gdg.mlwm"
        }
      },
      "oauth_client": [
        {
          "client_id": "155886187869-1gc9kvseakn9u4ufdpera2o7i48j6t2d.apps.googleusercontent.com",
          "client_type": 1,
          "android_info": {
            "package_name": "com.paper.ball.gdg.mlwm",
            "certificate_hash": "454f5f7d2f8f0d8578269194ce88d64530db9801"
          }
        },
        {
          "client_id": "155886187869-rrpqt1kq50g5j0q3vja0sbv2nr31si9h.apps.googleusercontent.com",
          "client_type": 3
        }
      ],
      "api_key": [
        {
          "current_key": "AIzaSyBNAEE5UN5czuTZhkw4BmRnOzZYQz0dMxw"
        }
      ],
      "services": {
        "analytics_service": {
          "status": 1
        },
        "appinvite_service": {
          "status": 2,
          "other_platform_oauth_client": [
            {
              "client_id": "155886187869-rrpqt1kq50g5j0q3vja0sbv2nr31si9h.apps.googleusercontent.com",
              "client_type": 3
            }
          ]
        },
        "ads_service": {
          "status": 2
        }
      }
    }
  ],
  "configuration_version": "1"
}